%YAML 1.1
%TAG !u! tag:unity3d.com,2011:
--- !u!114 &11400000
MonoBehaviour:
  m_ObjectHideFlags: 0
  m_CorrespondingSourceObject: {fileID: 0}
  m_PrefabInstance: {fileID: 0}
  m_PrefabAsset: {fileID: 0}
  m_GameObject: {fileID: 0}
  m_Enabled: 1
  m_EditorHideFlags: 0
  m_Script: {fileID: 11500000, guid: ba7af64618198e148a541bedaeb61e8d, type: 3}
  m_Name: Enemy6Settings
  m_EditorClassIdentifier: 
  Position: {x: 0, y: 0, z: 0}
  Health: 150
  MaxHealth: 150
  Damage: 15
  LocalScale: {x: 3, y: 3, z: 3}
  Speed: 5
  color: {r: 1, g: 0.64705884, b: 0.31764707, a: 1}
  Ruta:
  - {x: 11, y: -30, z: 0}
  - {x: 22, y: -37, z: 0}
  - {x: 15, y: -50, z: 0}
  - {x: -1, y: -35, z: 0}
  - {x: -15, y: -40, z: 0}
  - {x: -23, y: -30, z: 0}
  - {x: -18, y: -44, z: 0}
  Level: 2
  xpDrop: 35
  DamageRange: 2
  AtackCD: 2
