%YAML 1.1
%TAG !u! tag:unity3d.com,2011:
--- !u!114 &11400000
MonoBehaviour:
  m_ObjectHideFlags: 0
  m_CorrespondingSourceObject: {fileID: 0}
  m_PrefabInstance: {fileID: 0}
  m_PrefabAsset: {fileID: 0}
  m_GameObject: {fileID: 0}
  m_Enabled: 1
  m_EditorHideFlags: 0
  m_Script: {fileID: 11500000, guid: ba7af64618198e148a541bedaeb61e8d, type: 3}
  m_Name: Enemy1DesertSettings
  m_EditorClassIdentifier: 
  Position: {x: 0, y: 0, z: 0}
  Health: 300
  MaxHealth: 300
  Damage: 10
  LocalScale: {x: 10, y: 10, z: 10}
  Speed: 3
  color: {r: 0.6886792, g: 0.5358131, b: 0.009745443, a: 1}
  Ruta:
  - {x: 50, y: -27, z: 0}
  - {x: 60, y: -32, z: 0}
  - {x: 65, y: -37, z: 0}
  - {x: 72, y: -45, z: 0}
  - {x: 82, y: -52, z: 0}
  - {x: 85, y: -35, z: 0}
  - {x: 100, y: -23, z: 0}
  Level: 2
  xpDrop: 100
  DamageRange: 23
  AtackCD: 4
