%YAML 1.1
%TAG !u! tag:unity3d.com,2011:
--- !u!114 &11400000
MonoBehaviour:
  m_ObjectHideFlags: 0
  m_CorrespondingSourceObject: {fileID: 0}
  m_PrefabInstance: {fileID: 0}
  m_PrefabAsset: {fileID: 0}
  m_GameObject: {fileID: 0}
  m_Enabled: 1
  m_EditorHideFlags: 0
  m_Script: {fileID: 11500000, guid: 9178f5a76703c481f87e17afbf2f8193, type: 3}
  m_Name: PjSettings
  m_EditorClassIdentifier: 
  Health: 100
  HPmax: 280
  MaxStamina: 100
  Damage: 70
  Velocity: 6
  Stamina: 100.138405
  XP: 0
  Level: 6
  LocalScale: {x: 0, y: 0, z: 0}
  Position: {x: 14.056526, y: 1.0614884, z: 0}
  OverWorldPosition: {x: -17.482346, y: 52.181942, z: 0}
  Transform: {fileID: 0}
  Scene: 3
  monedas: 136
