%YAML 1.1
%TAG !u! tag:unity3d.com,2011:
--- !u!74 &7400000
AnimationClip:
  m_ObjectHideFlags: 0
  m_CorrespondingSourceObject: {fileID: 0}
  m_PrefabInstance: {fileID: 0}
  m_PrefabAsset: {fileID: 0}
  m_Name: HerreroIdle
  serializedVersion: 6
  m_Legacy: 0
  m_Compressed: 0
  m_UseHighQualityCurve: 1
  m_RotationCurves: []
  m_CompressedRotationCurves: []
  m_EulerCurves: []
  m_PositionCurves: []
  m_ScaleCurves: []
  m_FloatCurves: []
  m_PPtrCurves:
  - curve:
    - time: 0
      value: {fileID: 21300000, guid: 5e8b1fedee79a504ba17714631a0c3bf, type: 3}
    - time: 0.04
      value: {fileID: 21300000, guid: d116eb3268b0a6a42a75a2a7758edf19, type: 3}
    - time: 0.08
      value: {fileID: 21300000, guid: 77ebbff6953ac1b428a0277ad470e95d, type: 3}
    - time: 0.12
      value: {fileID: 21300000, guid: 460618c2f1d96c24f8c92e4dc07e9a87, type: 3}
    - time: 0.16
      value: {fileID: 21300000, guid: a85e872c226f6c64d879039f380d0a1f, type: 3}
    - time: 0.2
      value: {fileID: 21300000, guid: 9bda09e7fea6a4a44a55532e8db5b8f3, type: 3}
    - time: 0.24
      value: {fileID: 21300000, guid: 5a3033c876af21b41ac4fbcc4fc3251f, type: 3}
    - time: 0.28
      value: {fileID: 21300000, guid: 9b536557b5dbf05428432caa24096a70, type: 3}
    - time: 0.32
      value: {fileID: 21300000, guid: 229e2844c3b8e4049a0400eb5a49f909, type: 3}
    - time: 0.36
      value: {fileID: 21300000, guid: 3826096a875586a44ab2c61e0967aab9, type: 3}
    - time: 0.4
      value: {fileID: 21300000, guid: eca1b9c2c7f97764f8bb05c0a036774e, type: 3}
    - time: 0.44
      value: {fileID: 21300000, guid: d087576c74d3cbb4c9640c60d8deb546, type: 3}
    - time: 0.48
      value: {fileID: 21300000, guid: 3e9234786f89e2a49bf79f0069301f0e, type: 3}
    - time: 0.52
      value: {fileID: 21300000, guid: a551c9ca592e9fd4eaae0ce5480522d7, type: 3}
    - time: 0.56
      value: {fileID: 21300000, guid: 240223acf0b9c76488a45095be6b0ccf, type: 3}
    - time: 0.6
      value: {fileID: 21300000, guid: 23f47f73bc7d7ee47818bb3ed3b00184, type: 3}
    - time: 0.64
      value: {fileID: 21300000, guid: 8e99eb0f415d79545999b95c7e74f7e8, type: 3}
    - time: 0.68
      value: {fileID: 21300000, guid: 89288d05d565cc24d806e841155da7fd, type: 3}
    - time: 0.72
      value: {fileID: 21300000, guid: 5d360d7f05d7d054582da692a92c2fb3, type: 3}
    - time: 0.76
      value: {fileID: 21300000, guid: 75a026be1df4b5240805b40036d0db04, type: 3}
    - time: 0.8
      value: {fileID: 21300000, guid: 9094805a78fd02847a0ebb00cbd26192, type: 3}
    - time: 0.84
      value: {fileID: 21300000, guid: 48e1a327788d7cd4497d71d22a0ba765, type: 3}
    - time: 0.88
      value: {fileID: 21300000, guid: f7b841f327cea554dbbdcc50e7ea239f, type: 3}
    - time: 0.92
      value: {fileID: 21300000, guid: 4b21534b7190f7741af9b24b1c9cf2b5, type: 3}
    - time: 0.96
      value: {fileID: 21300000, guid: 5d99dbad5360d144aa5b2818c3a7b6a3, type: 3}
    - time: 1
      value: {fileID: 21300000, guid: 2532188e5af648846b36ac77bb070297, type: 3}
    - time: 1.04
      value: {fileID: 21300000, guid: 07565c0cc9e6cd64180e953e5d4cfc12, type: 3}
    - time: 1.08
      value: {fileID: 21300000, guid: 9bd44a96b71632b47bedc97556f561a6, type: 3}
    - time: 1.12
      value: {fileID: 21300000, guid: 961d7ec89f3336345a2b956b5ba41bbf, type: 3}
    - time: 1.16
      value: {fileID: 21300000, guid: 60ff46b2e43ff704a837cdb05b8a509f, type: 3}
    attribute: m_Sprite
    path: 
    classID: 212
    script: {fileID: 0}
  m_SampleRate: 25
  m_WrapMode: 0
  m_Bounds:
    m_Center: {x: 0, y: 0, z: 0}
    m_Extent: {x: 0, y: 0, z: 0}
  m_ClipBindingConstant:
    genericBindings:
    - serializedVersion: 2
      path: 0
      attribute: 0
      script: {fileID: 0}
      typeID: 212
      customType: 23
      isPPtrCurve: 1
    pptrCurveMapping:
    - {fileID: 21300000, guid: 5e8b1fedee79a504ba17714631a0c3bf, type: 3}
    - {fileID: 21300000, guid: d116eb3268b0a6a42a75a2a7758edf19, type: 3}
    - {fileID: 21300000, guid: 77ebbff6953ac1b428a0277ad470e95d, type: 3}
    - {fileID: 21300000, guid: 460618c2f1d96c24f8c92e4dc07e9a87, type: 3}
    - {fileID: 21300000, guid: a85e872c226f6c64d879039f380d0a1f, type: 3}
    - {fileID: 21300000, guid: 9bda09e7fea6a4a44a55532e8db5b8f3, type: 3}
    - {fileID: 21300000, guid: 5a3033c876af21b41ac4fbcc4fc3251f, type: 3}
    - {fileID: 21300000, guid: 9b536557b5dbf05428432caa24096a70, type: 3}
    - {fileID: 21300000, guid: 229e2844c3b8e4049a0400eb5a49f909, type: 3}
    - {fileID: 21300000, guid: 3826096a875586a44ab2c61e0967aab9, type: 3}
    - {fileID: 21300000, guid: eca1b9c2c7f97764f8bb05c0a036774e, type: 3}
    - {fileID: 21300000, guid: d087576c74d3cbb4c9640c60d8deb546, type: 3}
    - {fileID: 21300000, guid: 3e9234786f89e2a49bf79f0069301f0e, type: 3}
    - {fileID: 21300000, guid: a551c9ca592e9fd4eaae0ce5480522d7, type: 3}
    - {fileID: 21300000, guid: 240223acf0b9c76488a45095be6b0ccf, type: 3}
    - {fileID: 21300000, guid: 23f47f73bc7d7ee47818bb3ed3b00184, type: 3}
    - {fileID: 21300000, guid: 8e99eb0f415d79545999b95c7e74f7e8, type: 3}
    - {fileID: 21300000, guid: 89288d05d565cc24d806e841155da7fd, type: 3}
    - {fileID: 21300000, guid: 5d360d7f05d7d054582da692a92c2fb3, type: 3}
    - {fileID: 21300000, guid: 75a026be1df4b5240805b40036d0db04, type: 3}
    - {fileID: 21300000, guid: 9094805a78fd02847a0ebb00cbd26192, type: 3}
    - {fileID: 21300000, guid: 48e1a327788d7cd4497d71d22a0ba765, type: 3}
    - {fileID: 21300000, guid: f7b841f327cea554dbbdcc50e7ea239f, type: 3}
    - {fileID: 21300000, guid: 4b21534b7190f7741af9b24b1c9cf2b5, type: 3}
    - {fileID: 21300000, guid: 5d99dbad5360d144aa5b2818c3a7b6a3, type: 3}
    - {fileID: 21300000, guid: 2532188e5af648846b36ac77bb070297, type: 3}
    - {fileID: 21300000, guid: 07565c0cc9e6cd64180e953e5d4cfc12, type: 3}
    - {fileID: 21300000, guid: 9bd44a96b71632b47bedc97556f561a6, type: 3}
    - {fileID: 21300000, guid: 961d7ec89f3336345a2b956b5ba41bbf, type: 3}
    - {fileID: 21300000, guid: 60ff46b2e43ff704a837cdb05b8a509f, type: 3}
  m_AnimationClipSettings:
    serializedVersion: 2
    m_AdditiveReferencePoseClip: {fileID: 0}
    m_AdditiveReferencePoseTime: 0
    m_StartTime: 0
    m_StopTime: 1.1999999
    m_OrientationOffsetY: 0
    m_Level: 0
    m_CycleOffset: 0
    m_HasAdditiveReferencePose: 0
    m_LoopTime: 1
    m_LoopBlend: 0
    m_LoopBlendOrientation: 0
    m_LoopBlendPositionY: 0
    m_LoopBlendPositionXZ: 0
    m_KeepOriginalOrientation: 0
    m_KeepOriginalPositionY: 1
    m_KeepOriginalPositionXZ: 0
    m_HeightFromFeet: 0
    m_Mirror: 0
  m_EditorCurves: []
  m_EulerEditorCurves: []
  m_HasGenericRootTransform: 0
  m_HasMotionFloatCurves: 0
  m_Events: []
