%YAML 1.1
%TAG !u! tag:unity3d.com,2011:
--- !u!74 &7400000
AnimationClip:
  m_ObjectHideFlags: 0
  m_CorrespondingSourceObject: {fileID: 0}
  m_PrefabInstance: {fileID: 0}
  m_PrefabAsset: {fileID: 0}
  m_Name: Pj_WalkA
  serializedVersion: 6
  m_Legacy: 0
  m_Compressed: 0
  m_UseHighQualityCurve: 1
  m_RotationCurves: []
  m_CompressedRotationCurves: []
  m_EulerCurves:
  - curve:
      serializedVersion: 2
      m_Curve:
      - serializedVersion: 3
        time: 0
        value: {x: -152.302, y: 0, z: 0}
        inSlope: {x: 0, y: 0, z: 0}
        outSlope: {x: 0, y: 0, z: 0}
        tangentMode: 0
        weightedMode: 0
        inWeight: {x: 0.33333334, y: 0.33333334, z: 0.33333334}
        outWeight: {x: 0.33333334, y: 0.33333334, z: 0.33333334}
      - serializedVersion: 3
        time: 0.3
        value: {x: -152.302, y: 0, z: -2.0559692}
        inSlope: {x: 0, y: 0, z: 0}
        outSlope: {x: 0, y: 0, z: 0}
        tangentMode: 0
        weightedMode: 0
        inWeight: {x: 0.33333334, y: 0.33333334, z: 0.33333334}
        outWeight: {x: 0.33333334, y: 0.33333334, z: 0.33333334}
      - serializedVersion: 3
        time: 0.7
        value: {x: -152.302, y: -0.000015258789, z: -0.34698486}
        inSlope: {x: 0, y: 0, z: 0}
        outSlope: {x: 0, y: 0, z: 0}
        tangentMode: 0
        weightedMode: 0
        inWeight: {x: 0.33333334, y: 0.33333334, z: 0.33333334}
        outWeight: {x: 0.33333334, y: 0.33333334, z: 0.33333334}
      m_PreInfinity: 2
      m_PostInfinity: 2
      m_RotationOrder: 4
    path: HurtBox
  m_PositionCurves:
  - curve:
      serializedVersion: 2
      m_Curve:
      - serializedVersion: 3
        time: 0
        value: {x: -0.52, y: -0.04, z: -0.04}
        inSlope: {x: 0, y: 0, z: 0}
        outSlope: {x: 0, y: 0, z: 0}
        tangentMode: 0
        weightedMode: 0
        inWeight: {x: 0.33333334, y: 0.33333334, z: 0.33333334}
        outWeight: {x: 0.33333334, y: 0.33333334, z: 0.33333334}
      - serializedVersion: 3
        time: 0.2
        value: {x: -0.54, y: -0.04, z: -0.04}
        inSlope: {x: 0, y: 0, z: 0}
        outSlope: {x: 0, y: 0, z: 0}
        tangentMode: 0
        weightedMode: 0
        inWeight: {x: 0.33333334, y: 0.33333334, z: 0.33333334}
        outWeight: {x: 0.33333334, y: 0.33333334, z: 0.33333334}
      - serializedVersion: 3
        time: 0.45
        value: {x: -0.51, y: -0.04, z: -0.04}
        inSlope: {x: 0, y: 0, z: 0}
        outSlope: {x: 0, y: 0, z: 0}
        tangentMode: 0
        weightedMode: 0
        inWeight: {x: 0.33333334, y: 0.33333334, z: 0.33333334}
        outWeight: {x: 0.33333334, y: 0.33333334, z: 0.33333334}
      - serializedVersion: 3
        time: 0.7
        value: {x: -0.52, y: -0.04, z: -0.04}
        inSlope: {x: 0, y: 0, z: 0}
        outSlope: {x: 0, y: 0, z: 0}
        tangentMode: 0
        weightedMode: 0
        inWeight: {x: 0.33333334, y: 0.33333334, z: 0.33333334}
        outWeight: {x: 0.33333334, y: 0.33333334, z: 0.33333334}
      m_PreInfinity: 2
      m_PostInfinity: 2
      m_RotationOrder: 4
    path: HurtBox
  m_ScaleCurves: []
  m_FloatCurves:
  - curve:
      serializedVersion: 2
      m_Curve:
      - serializedVersion: 3
        time: 0
        value: 0
        inSlope: Infinity
        outSlope: Infinity
        tangentMode: 103
        weightedMode: 0
        inWeight: 0
        outWeight: 0
      - serializedVersion: 3
        time: 1.15
        value: 0
        inSlope: Infinity
        outSlope: Infinity
        tangentMode: 103
        weightedMode: 0
        inWeight: 0
        outWeight: 0
      m_PreInfinity: 2
      m_PostInfinity: 2
      m_RotationOrder: 4
    attribute: m_IsActive
    path: Espada
    classID: 1
    script: {fileID: 0}
  m_PPtrCurves:
  - curve:
    - time: 0
      value: {fileID: 1799417910440741454, guid: a3d186251ffe12c4d9983e8545d2e0a1,
        type: 3}
    - time: 0.05
      value: {fileID: 7864027828207504409, guid: a3d186251ffe12c4d9983e8545d2e0a1,
        type: 3}
    - time: 0.1
      value: {fileID: -5890333810227956982, guid: a3d186251ffe12c4d9983e8545d2e0a1,
        type: 3}
    - time: 0.15
      value: {fileID: 6470333074295794015, guid: a3d186251ffe12c4d9983e8545d2e0a1,
        type: 3}
    - time: 0.2
      value: {fileID: -108860515706886659, guid: a3d186251ffe12c4d9983e8545d2e0a1,
        type: 3}
    - time: 0.25
      value: {fileID: 5231438746077777407, guid: a3d186251ffe12c4d9983e8545d2e0a1,
        type: 3}
    - time: 0.3
      value: {fileID: -8753722797058055857, guid: a3d186251ffe12c4d9983e8545d2e0a1,
        type: 3}
    - time: 0.35
      value: {fileID: 8313670496910237592, guid: a3d186251ffe12c4d9983e8545d2e0a1,
        type: 3}
    - time: 0.4
      value: {fileID: 2325247737618975913, guid: a3d186251ffe12c4d9983e8545d2e0a1,
        type: 3}
    - time: 0.45
      value: {fileID: -3365453738242329092, guid: a3d186251ffe12c4d9983e8545d2e0a1,
        type: 3}
    - time: 0.5
      value: {fileID: -2572914425760374112, guid: a3d186251ffe12c4d9983e8545d2e0a1,
        type: 3}
    - time: 0.55
      value: {fileID: 2635849199256760143, guid: a3d186251ffe12c4d9983e8545d2e0a1,
        type: 3}
    - time: 0.6
      value: {fileID: 3676725573803921718, guid: a3d186251ffe12c4d9983e8545d2e0a1,
        type: 3}
    - time: 0.65
      value: {fileID: 329571698765341658, guid: a3d186251ffe12c4d9983e8545d2e0a1,
        type: 3}
    - time: 0.7
      value: {fileID: 2634386815059875946, guid: a3d186251ffe12c4d9983e8545d2e0a1,
        type: 3}
    - time: 0.75
      value: {fileID: -3193962044973314540, guid: a3d186251ffe12c4d9983e8545d2e0a1,
        type: 3}
    - time: 0.8
      value: {fileID: -1073428011053611905, guid: a3d186251ffe12c4d9983e8545d2e0a1,
        type: 3}
    - time: 0.85
      value: {fileID: 7854313749455480216, guid: a3d186251ffe12c4d9983e8545d2e0a1,
        type: 3}
    - time: 0.9
      value: {fileID: -1724773531993086419, guid: a3d186251ffe12c4d9983e8545d2e0a1,
        type: 3}
    - time: 0.95
      value: {fileID: -9027539917666107198, guid: a3d186251ffe12c4d9983e8545d2e0a1,
        type: 3}
    - time: 1
      value: {fileID: 3249242478475358054, guid: a3d186251ffe12c4d9983e8545d2e0a1,
        type: 3}
    - time: 1.05
      value: {fileID: 1563636186409813046, guid: a3d186251ffe12c4d9983e8545d2e0a1,
        type: 3}
    - time: 1.1
      value: {fileID: 5119194101252353792, guid: a3d186251ffe12c4d9983e8545d2e0a1,
        type: 3}
    attribute: m_Sprite
    path: 
    classID: 212
    script: {fileID: 0}
  m_SampleRate: 20
  m_WrapMode: 0
  m_Bounds:
    m_Center: {x: 0, y: 0, z: 0}
    m_Extent: {x: 0, y: 0, z: 0}
  m_ClipBindingConstant:
    genericBindings:
    - serializedVersion: 2
      path: 428682174
      attribute: 1
      script: {fileID: 0}
      typeID: 4
      customType: 0
      isPPtrCurve: 0
    - serializedVersion: 2
      path: 428682174
      attribute: 4
      script: {fileID: 0}
      typeID: 4
      customType: 4
      isPPtrCurve: 0
    - serializedVersion: 2
      path: 1227579013
      attribute: 2086281974
      script: {fileID: 0}
      typeID: 1
      customType: 0
      isPPtrCurve: 0
    - serializedVersion: 2
      path: 0
      attribute: 0
      script: {fileID: 0}
      typeID: 212
      customType: 23
      isPPtrCurve: 1
    pptrCurveMapping:
    - {fileID: 1799417910440741454, guid: a3d186251ffe12c4d9983e8545d2e0a1, type: 3}
    - {fileID: 7864027828207504409, guid: a3d186251ffe12c4d9983e8545d2e0a1, type: 3}
    - {fileID: -5890333810227956982, guid: a3d186251ffe12c4d9983e8545d2e0a1, type: 3}
    - {fileID: 6470333074295794015, guid: a3d186251ffe12c4d9983e8545d2e0a1, type: 3}
    - {fileID: -108860515706886659, guid: a3d186251ffe12c4d9983e8545d2e0a1, type: 3}
    - {fileID: 5231438746077777407, guid: a3d186251ffe12c4d9983e8545d2e0a1, type: 3}
    - {fileID: -8753722797058055857, guid: a3d186251ffe12c4d9983e8545d2e0a1, type: 3}
    - {fileID: 8313670496910237592, guid: a3d186251ffe12c4d9983e8545d2e0a1, type: 3}
    - {fileID: 2325247737618975913, guid: a3d186251ffe12c4d9983e8545d2e0a1, type: 3}
    - {fileID: -3365453738242329092, guid: a3d186251ffe12c4d9983e8545d2e0a1, type: 3}
    - {fileID: -2572914425760374112, guid: a3d186251ffe12c4d9983e8545d2e0a1, type: 3}
    - {fileID: 2635849199256760143, guid: a3d186251ffe12c4d9983e8545d2e0a1, type: 3}
    - {fileID: 3676725573803921718, guid: a3d186251ffe12c4d9983e8545d2e0a1, type: 3}
    - {fileID: 329571698765341658, guid: a3d186251ffe12c4d9983e8545d2e0a1, type: 3}
    - {fileID: 2634386815059875946, guid: a3d186251ffe12c4d9983e8545d2e0a1, type: 3}
    - {fileID: -3193962044973314540, guid: a3d186251ffe12c4d9983e8545d2e0a1, type: 3}
    - {fileID: -1073428011053611905, guid: a3d186251ffe12c4d9983e8545d2e0a1, type: 3}
    - {fileID: 7854313749455480216, guid: a3d186251ffe12c4d9983e8545d2e0a1, type: 3}
    - {fileID: -1724773531993086419, guid: a3d186251ffe12c4d9983e8545d2e0a1, type: 3}
    - {fileID: -9027539917666107198, guid: a3d186251ffe12c4d9983e8545d2e0a1, type: 3}
    - {fileID: 3249242478475358054, guid: a3d186251ffe12c4d9983e8545d2e0a1, type: 3}
    - {fileID: 1563636186409813046, guid: a3d186251ffe12c4d9983e8545d2e0a1, type: 3}
    - {fileID: 5119194101252353792, guid: a3d186251ffe12c4d9983e8545d2e0a1, type: 3}
  m_AnimationClipSettings:
    serializedVersion: 2
    m_AdditiveReferencePoseClip: {fileID: 0}
    m_AdditiveReferencePoseTime: 0
    m_StartTime: 0
    m_StopTime: 1.15
    m_OrientationOffsetY: 0
    m_Level: 0
    m_CycleOffset: 0
    m_HasAdditiveReferencePose: 0
    m_LoopTime: 1
    m_LoopBlend: 0
    m_LoopBlendOrientation: 0
    m_LoopBlendPositionY: 0
    m_LoopBlendPositionXZ: 0
    m_KeepOriginalOrientation: 0
    m_KeepOriginalPositionY: 1
    m_KeepOriginalPositionXZ: 0
    m_HeightFromFeet: 0
    m_Mirror: 0
  m_EditorCurves:
  - curve:
      serializedVersion: 2
      m_Curve:
      - serializedVersion: 3
        time: 0
        value: -0.52
        inSlope: 0
        outSlope: 0
        tangentMode: 136
        weightedMode: 0
        inWeight: 0.33333334
        outWeight: 0.33333334
      - serializedVersion: 3
        time: 0.2
        value: -0.54
        inSlope: 0
        outSlope: 0
        tangentMode: 136
        weightedMode: 0
        inWeight: 0.33333334
        outWeight: 0.33333334
      - serializedVersion: 3
        time: 0.45
        value: -0.51
        inSlope: 0
        outSlope: 0
        tangentMode: 136
        weightedMode: 0
        inWeight: 0.33333334
        outWeight: 0.33333334
      - serializedVersion: 3
        time: 0.7
        value: -0.52
        inSlope: 0
        outSlope: 0
        tangentMode: 136
        weightedMode: 0
        inWeight: 0.33333334
        outWeight: 0.33333334
      m_PreInfinity: 2
      m_PostInfinity: 2
      m_RotationOrder: 4
    attribute: m_LocalPosition.x
    path: HurtBox
    classID: 4
    script: {fileID: 0}
  - curve:
      serializedVersion: 2
      m_Curve:
      - serializedVersion: 3
        time: 0
        value: -0.04
        inSlope: 0
        outSlope: 0
        tangentMode: 136
        weightedMode: 0
        inWeight: 0.33333334
        outWeight: 0.33333334
      - serializedVersion: 3
        time: 0.2
        value: -0.04
        inSlope: 0
        outSlope: 0
        tangentMode: 136
        weightedMode: 0
        inWeight: 0.33333334
        outWeight: 0.33333334
      - serializedVersion: 3
        time: 0.45
        value: -0.04
        inSlope: 0
        outSlope: 0
        tangentMode: 136
        weightedMode: 0
        inWeight: 0.33333334
        outWeight: 0.33333334
      - serializedVersion: 3
        time: 0.7
        value: -0.04
        inSlope: 0
        outSlope: 0
        tangentMode: 136
        weightedMode: 0
        inWeight: 0.33333334
        outWeight: 0.33333334
      m_PreInfinity: 2
      m_PostInfinity: 2
      m_RotationOrder: 4
    attribute: m_LocalPosition.y
    path: HurtBox
    classID: 4
    script: {fileID: 0}
  - curve:
      serializedVersion: 2
      m_Curve:
      - serializedVersion: 3
        time: 0
        value: -0.04
        inSlope: 0
        outSlope: 0
        tangentMode: 136
        weightedMode: 0
        inWeight: 0.33333334
        outWeight: 0.33333334
      - serializedVersion: 3
        time: 0.2
        value: -0.04
        inSlope: 0
        outSlope: 0
        tangentMode: 136
        weightedMode: 0
        inWeight: 0.33333334
        outWeight: 0.33333334
      - serializedVersion: 3
        time: 0.45
        value: -0.04
        inSlope: 0
        outSlope: 0
        tangentMode: 136
        weightedMode: 0
        inWeight: 0.33333334
        outWeight: 0.33333334
      - serializedVersion: 3
        time: 0.7
        value: -0.04
        inSlope: 0
        outSlope: 0
        tangentMode: 136
        weightedMode: 0
        inWeight: 0.33333334
        outWeight: 0.33333334
      m_PreInfinity: 2
      m_PostInfinity: 2
      m_RotationOrder: 4
    attribute: m_LocalPosition.z
    path: HurtBox
    classID: 4
    script: {fileID: 0}
  - curve:
      serializedVersion: 2
      m_Curve:
      - serializedVersion: 3
        time: 0
        value: -152.302
        inSlope: 0
        outSlope: 0
        tangentMode: 136
        weightedMode: 0
        inWeight: 0.33333334
        outWeight: 0.33333334
      - serializedVersion: 3
        time: 0.3
        value: -152.302
        inSlope: 0
        outSlope: 0
        tangentMode: 136
        weightedMode: 0
        inWeight: 0.33333334
        outWeight: 0.33333334
      - serializedVersion: 3
        time: 0.7
        value: -152.302
        inSlope: 0
        outSlope: 0
        tangentMode: 136
        weightedMode: 0
        inWeight: 0.33333334
        outWeight: 0.33333334
      m_PreInfinity: 2
      m_PostInfinity: 2
      m_RotationOrder: 4
    attribute: localEulerAnglesRaw.x
    path: HurtBox
    classID: 4
    script: {fileID: 0}
  - curve:
      serializedVersion: 2
      m_Curve:
      - serializedVersion: 3
        time: 0
        value: 0
        inSlope: 0
        outSlope: 0
        tangentMode: 136
        weightedMode: 0
        inWeight: 0.33333334
        outWeight: 0.33333334
      - serializedVersion: 3
        time: 0.3
        value: 0
        inSlope: 0
        outSlope: 0
        tangentMode: 136
        weightedMode: 0
        inWeight: 0.33333334
        outWeight: 0.33333334
      - serializedVersion: 3
        time: 0.7
        value: -0.000015258789
        inSlope: 0
        outSlope: 0
        tangentMode: 136
        weightedMode: 0
        inWeight: 0.33333334
        outWeight: 0.33333334
      m_PreInfinity: 2
      m_PostInfinity: 2
      m_RotationOrder: 4
    attribute: localEulerAnglesRaw.y
    path: HurtBox
    classID: 4
    script: {fileID: 0}
  - curve:
      serializedVersion: 2
      m_Curve:
      - serializedVersion: 3
        time: 0
        value: 0
        inSlope: 0
        outSlope: 0
        tangentMode: 136
        weightedMode: 0
        inWeight: 0.33333334
        outWeight: 0.33333334
      - serializedVersion: 3
        time: 0.3
        value: -2.0559692
        inSlope: 0
        outSlope: 0
        tangentMode: 136
        weightedMode: 0
        inWeight: 0.33333334
        outWeight: 0.33333334
      - serializedVersion: 3
        time: 0.7
        value: -0.34698486
        inSlope: 0
        outSlope: 0
        tangentMode: 136
        weightedMode: 0
        inWeight: 0.33333334
        outWeight: 0.33333334
      m_PreInfinity: 2
      m_PostInfinity: 2
      m_RotationOrder: 4
    attribute: localEulerAnglesRaw.z
    path: HurtBox
    classID: 4
    script: {fileID: 0}
  - curve:
      serializedVersion: 2
      m_Curve:
      - serializedVersion: 3
        time: 0
        value: 0
        inSlope: Infinity
        outSlope: Infinity
        tangentMode: 103
        weightedMode: 0
        inWeight: 0
        outWeight: 0
      - serializedVersion: 3
        time: 1.15
        value: 0
        inSlope: Infinity
        outSlope: Infinity
        tangentMode: 103
        weightedMode: 0
        inWeight: 0
        outWeight: 0
      m_PreInfinity: 2
      m_PostInfinity: 2
      m_RotationOrder: 4
    attribute: m_IsActive
    path: Espada
    classID: 1
    script: {fileID: 0}
  m_EulerEditorCurves:
  - curve:
      serializedVersion: 2
      m_Curve: []
      m_PreInfinity: 2
      m_PostInfinity: 2
      m_RotationOrder: 4
    attribute: m_LocalEulerAngles.x
    path: HurtBox
    classID: 4
    script: {fileID: 0}
  - curve:
      serializedVersion: 2
      m_Curve: []
      m_PreInfinity: 2
      m_PostInfinity: 2
      m_RotationOrder: 4
    attribute: m_LocalEulerAngles.y
    path: HurtBox
    classID: 4
    script: {fileID: 0}
  - curve:
      serializedVersion: 2
      m_Curve: []
      m_PreInfinity: 2
      m_PostInfinity: 2
      m_RotationOrder: 4
    attribute: m_LocalEulerAngles.z
    path: HurtBox
    classID: 4
    script: {fileID: 0}
  m_HasGenericRootTransform: 0
  m_HasMotionFloatCurves: 0
  m_Events: []
