%YAML 1.1
%TAG !u! tag:unity3d.com,2011:
--- !u!114 &11400000
MonoBehaviour:
  m_ObjectHideFlags: 0
  m_CorrespondingSourceObject: {fileID: 0}
  m_PrefabInstance: {fileID: 0}
  m_PrefabAsset: {fileID: 0}
  m_GameObject: {fileID: 0}
  m_Enabled: 1
  m_EditorHideFlags: 0
  m_Script: {fileID: 11500000, guid: 27888a00d2baf3943bb8215ba294863a, type: 3}
  m_Name: Stamina Potion
  m_EditorClassIdentifier: 
  cantidad: 0
  imagen: {fileID: 0}
  nivel: 0
  precio: 30
  HP: 0
  Stamina: 10
  Exp: 0
  tipo: 3
